module gitlab.com/leucos/toji

go 1.14

require (
	github.com/andygrunwald/go-jira v1.12.0
	github.com/daviddengcn/go-colortext v1.0.0
	github.com/fatih/structs v1.1.0 // indirect
	github.com/fsnotify/fsnotify v1.4.9 // indirect
	github.com/google/go-querystring v1.0.0 // indirect
	github.com/jason0x43/go-toggl v0.0.0-20191006134724-98db1b5443ff
	github.com/mitchellh/mapstructure v1.3.0 // indirect
	github.com/pelletier/go-toml v1.8.0 // indirect
	github.com/pkg/errors v0.9.1 // indirect
	github.com/spf13/afero v1.2.2 // indirect
	github.com/spf13/cast v1.3.1 // indirect
	github.com/spf13/cobra v1.0.0
	github.com/spf13/jwalterweatherman v1.1.0 // indirect
	github.com/spf13/pflag v1.0.5 // indirect
	github.com/spf13/viper v1.7.0
	github.com/stretchr/testify v1.5.1
	github.com/trivago/tgo v1.0.7 // indirect
	golang.org/x/sys v0.0.0-20200519105757-fe76b779f299 // indirect
	gopkg.in/ini.v1 v1.56.0 // indirect
)
